^E:\PROGRAMMING\PROJECTS\C++\MATRIXMULTIPLICATION\TESTMATRIXMULTIPLICATION\PCH.CPP
E:\PROGRAMMING\VISUAL STUDIO COMMUNITY\VC\TOOLS\MSVC\14.16.27023\BIN\HOSTX86\X86\1033\CLUI.DLL
C:\WINDOWS\GLOBALIZATION\SORTING\SORTDEFAULT.NLS
C:\WINDOWS\SYSTEM32\TZRES.DLL
E:\PROGRAMMING\PROJECTS\C++\MATRIXMULTIPLICATION\TESTMATRIXMULTIPLICATION\PCH.H
E:\PROGRAMMING\PROJECTS\C++\MATRIXMULTIPLICATION\PACKAGES\MICROSOFT.GOOGLETEST.V140.WINDESKTOP.MSVCSTL.STATIC.RT-DYN.1.8.0\BUILD\NATIVE\INCLUDE\GTEST\GTEST.H
E:\PROGRAMMING\VISUAL STUDIO COMMUNITY\VC\TOOLS\MSVC\14.16.27023\INCLUDE\LIMITS
E:\PROGRAMMING\VISUAL STUDIO COMMUNITY\VC\TOOLS\MSVC\14.16.27023\INCLUDE\YMATH.H
E:\PROGRAMMING\VISUAL STUDIO COMMUNITY\VC\TOOLS\MSVC\14.16.27023\INCLUDE\YVALS.H
E:\PROGRAMMING\VISUAL STUDIO COMMUNITY\VC\TOOLS\MSVC\14.16.27023\INCLUDE\YVALS_CORE.H
E:\PROGRAMMING\VISUAL STUDIO COMMUNITY\VC\TOOLS\MSVC\14.16.27023\INCLUDE\XKEYCHECK.H
E:\PROGRAMMING\VISUAL STUDIO COMMUNITY\VC\TOOLS\MSVC\14.16.27023\INCLUDE\CRTDEFS.H
E:\PROGRAMMING\VISUAL STUDIO COMMUNITY\VC\TOOLS\MSVC\14.16.27023\INCLUDE\VCRUNTIME.H
E:\PROGRAMMING\VISUAL STUDIO COMMUNITY\VC\TOOLS\MSVC\14.16.27023\INCLUDE\SAL.H
E:\PROGRAMMING\VISUAL STUDIO COMMUNITY\VC\TOOLS\MSVC\14.16.27023\INCLUDE\CONCURRENCYSAL.H
E:\PROGRAMMING\VISUAL STUDIO COMMUNITY\VC\TOOLS\MSVC\14.16.27023\INCLUDE\VADEFS.H
C:\PROGRAM FILES (X86)\WINDOWS KITS\10\INCLUDE\10.0.17763.0\UCRT\CORECRT.H
C:\PROGRAM FILES (X86)\WINDOWS KITS\10\INCLUDE\10.0.17763.0\UCRT\CRTDBG.H
E:\PROGRAMMING\VISUAL STUDIO COMMUNITY\VC\TOOLS\MSVC\14.16.27023\INCLUDE\VCRUNTIME_NEW_DEBUG.H
E:\PROGRAMMING\VISUAL STUDIO COMMUNITY\VC\TOOLS\MSVC\14.16.27023\INCLUDE\VCRUNTIME_NEW.H
E:\PROGRAMMING\VISUAL STUDIO COMMUNITY\VC\TOOLS\MSVC\14.16.27023\INCLUDE\USE_ANSI.H
E:\PROGRAMMING\VISUAL STUDIO COMMUNITY\VC\TOOLS\MSVC\14.16.27023\INCLUDE\CFLOAT
C:\PROGRAM FILES (X86)\WINDOWS KITS\10\INCLUDE\10.0.17763.0\UCRT\FLOAT.H
E:\PROGRAMMING\VISUAL STUDIO COMMUNITY\VC\TOOLS\MSVC\14.16.27023\INCLUDE\CLIMITS
E:\PROGRAMMING\VISUAL STUDIO COMMUNITY\VC\TOOLS\MSVC\14.16.27023\INCLUDE\LIMITS.H
E:\PROGRAMMING\VISUAL STUDIO COMMUNITY\VC\TOOLS\MSVC\14.16.27023\INCLUDE\CMATH
E:\PROGRAMMING\VISUAL STUDIO COMMUNITY\VC\TOOLS\MSVC\14.16.27023\INCLUDE\CSTDLIB
C:\PROGRAM FILES (X86)\WINDOWS KITS\10\INCLUDE\10.0.17763.0\UCRT\STDLIB.H
C:\PROGRAM FILES (X86)\WINDOWS KITS\10\INCLUDE\10.0.17763.0\UCRT\CORECRT_MALLOC.H
C:\PROGRAM FILES (X86)\WINDOWS KITS\10\INCLUDE\10.0.17763.0\UCRT\CORECRT_SEARCH.H
C:\PROGRAM FILES (X86)\WINDOWS KITS\10\INCLUDE\10.0.17763.0\UCRT\STDDEF.H
C:\PROGRAM FILES (X86)\WINDOWS KITS\10\INCLUDE\10.0.17763.0\UCRT\CORECRT_WSTDLIB.H
C:\PROGRAM FILES (X86)\WINDOWS KITS\10\INCLUDE\10.0.17763.0\UCRT\MATH.H
C:\PROGRAM FILES (X86)\WINDOWS KITS\10\INCLUDE\10.0.17763.0\UCRT\CORECRT_MATH.H
E:\PROGRAMMING\VISUAL STUDIO COMMUNITY\VC\TOOLS\MSVC\14.16.27023\INCLUDE\XTGMATH.H
E:\PROGRAMMING\VISUAL STUDIO COMMUNITY\VC\TOOLS\MSVC\14.16.27023\INCLUDE\XTR1COMMON
E:\PROGRAMMING\VISUAL STUDIO COMMUNITY\VC\TOOLS\MSVC\14.16.27023\INCLUDE\CWCHAR
C:\PROGRAM FILES (X86)\WINDOWS KITS\10\INCLUDE\10.0.17763.0\UCRT\WCHAR.H
C:\PROGRAM FILES (X86)\WINDOWS KITS\10\INCLUDE\10.0.17763.0\UCRT\CORECRT_MEMCPY_S.H
C:\PROGRAM FILES (X86)\WINDOWS KITS\10\INCLUDE\10.0.17763.0\UCRT\ERRNO.H
E:\PROGRAMMING\VISUAL STUDIO COMMUNITY\VC\TOOLS\MSVC\14.16.27023\INCLUDE\VCRUNTIME_STRING.H
C:\PROGRAM FILES (X86)\WINDOWS KITS\10\INCLUDE\10.0.17763.0\UCRT\CORECRT_WCONIO.H
C:\PROGRAM FILES (X86)\WINDOWS KITS\10\INCLUDE\10.0.17763.0\UCRT\CORECRT_STDIO_CONFIG.H
C:\PROGRAM FILES (X86)\WINDOWS KITS\10\INCLUDE\10.0.17763.0\UCRT\CORECRT_WCTYPE.H
C:\PROGRAM FILES (X86)\WINDOWS KITS\10\INCLUDE\10.0.17763.0\UCRT\CORECRT_WDIRECT.H
C:\PROGRAM FILES (X86)\WINDOWS KITS\10\INCLUDE\10.0.17763.0\UCRT\CORECRT_WIO.H
C:\PROGRAM FILES (X86)\WINDOWS KITS\10\INCLUDE\10.0.17763.0\UCRT\CORECRT_SHARE.H
C:\PROGRAM FILES (X86)\WINDOWS KITS\10\INCLUDE\10.0.17763.0\UCRT\CORECRT_WPROCESS.H
C:\PROGRAM FILES (X86)\WINDOWS KITS\10\INCLUDE\10.0.17763.0\UCRT\CORECRT_WSTDIO.H
C:\PROGRAM FILES (X86)\WINDOWS KITS\10\INCLUDE\10.0.17763.0\UCRT\CORECRT_WSTRING.H
C:\PROGRAM FILES (X86)\WINDOWS KITS\10\INCLUDE\10.0.17763.0\UCRT\CORECRT_WTIME.H
C:\PROGRAM FILES (X86)\WINDOWS KITS\10\INCLUDE\10.0.17763.0\UCRT\SYS\STAT.H
C:\PROGRAM FILES (X86)\WINDOWS KITS\10\INCLUDE\10.0.17763.0\UCRT\SYS\TYPES.H
E:\PROGRAMMING\VISUAL STUDIO COMMUNITY\VC\TOOLS\MSVC\14.16.27023\INCLUDE\XSTDDEF
E:\PROGRAMMING\VISUAL STUDIO COMMUNITY\VC\TOOLS\MSVC\14.16.27023\INCLUDE\CSTDDEF
E:\PROGRAMMING\VISUAL STUDIO COMMUNITY\VC\TOOLS\MSVC\14.16.27023\INCLUDE\INITIALIZER_LIST
E:\PROGRAMMING\VISUAL STUDIO COMMUNITY\VC\TOOLS\MSVC\14.16.27023\INCLUDE\OSTREAM
E:\PROGRAMMING\VISUAL STUDIO COMMUNITY\VC\TOOLS\MSVC\14.16.27023\INCLUDE\IOS
E:\PROGRAMMING\VISUAL STUDIO COMMUNITY\VC\TOOLS\MSVC\14.16.27023\INCLUDE\XLOCNUM
E:\PROGRAMMING\VISUAL STUDIO COMMUNITY\VC\TOOLS\MSVC\14.16.27023\INCLUDE\CSTDIO
C:\PROGRAM FILES (X86)\WINDOWS KITS\10\INCLUDE\10.0.17763.0\UCRT\STDIO.H
E:\PROGRAMMING\VISUAL STUDIO COMMUNITY\VC\TOOLS\MSVC\14.16.27023\INCLUDE\STREAMBUF
E:\PROGRAMMING\VISUAL STUDIO COMMUNITY\VC\TOOLS\MSVC\14.16.27023\INCLUDE\XIOSBASE
E:\PROGRAMMING\VISUAL STUDIO COMMUNITY\VC\TOOLS\MSVC\14.16.27023\INCLUDE\XLOCALE
E:\PROGRAMMING\VISUAL STUDIO COMMUNITY\VC\TOOLS\MSVC\14.16.27023\INCLUDE\CSTRING
C:\PROGRAM FILES (X86)\WINDOWS KITS\10\INCLUDE\10.0.17763.0\UCRT\STRING.H
C:\PROGRAM FILES (X86)\WINDOWS KITS\10\INCLUDE\10.0.17763.0\UCRT\CORECRT_MEMORY.H
E:\PROGRAMMING\VISUAL STUDIO COMMUNITY\VC\TOOLS\MSVC\14.16.27023\INCLUDE\STDEXCEPT
E:\PROGRAMMING\VISUAL STUDIO COMMUNITY\VC\TOOLS\MSVC\14.16.27023\INCLUDE\EXCEPTION
E:\PROGRAMMING\VISUAL STUDIO COMMUNITY\VC\TOOLS\MSVC\14.16.27023\INCLUDE\TYPE_TRAITS
C:\PROGRAM FILES (X86)\WINDOWS KITS\10\INCLUDE\10.0.17763.0\UCRT\MALLOC.H
E:\PROGRAMMING\VISUAL STUDIO COMMUNITY\VC\TOOLS\MSVC\14.16.27023\INCLUDE\VCRUNTIME_EXCEPTION.H
E:\PROGRAMMING\VISUAL STUDIO COMMUNITY\VC\TOOLS\MSVC\14.16.27023\INCLUDE\EH.H
C:\PROGRAM FILES (X86)\WINDOWS KITS\10\INCLUDE\10.0.17763.0\UCRT\CORECRT_TERMINATE.H
E:\PROGRAMMING\VISUAL STUDIO COMMUNITY\VC\TOOLS\MSVC\14.16.27023\INCLUDE\XSTRING
E:\PROGRAMMING\VISUAL STUDIO COMMUNITY\VC\TOOLS\MSVC\14.16.27023\INCLUDE\XMEMORY0
E:\PROGRAMMING\VISUAL STUDIO COMMUNITY\VC\TOOLS\MSVC\14.16.27023\INCLUDE\CSTDINT
E:\PROGRAMMING\VISUAL STUDIO COMMUNITY\VC\TOOLS\MSVC\14.16.27023\INCLUDE\STDINT.H
E:\PROGRAMMING\VISUAL STUDIO COMMUNITY\VC\TOOLS\MSVC\14.16.27023\INCLUDE\NEW
E:\PROGRAMMING\VISUAL STUDIO COMMUNITY\VC\TOOLS\MSVC\14.16.27023\INCLUDE\XUTILITY
E:\PROGRAMMING\VISUAL STUDIO COMMUNITY\VC\TOOLS\MSVC\14.16.27023\INCLUDE\UTILITY
E:\PROGRAMMING\VISUAL STUDIO COMMUNITY\VC\TOOLS\MSVC\14.16.27023\INCLUDE\IOSFWD
E:\PROGRAMMING\VISUAL STUDIO COMMUNITY\VC\TOOLS\MSVC\14.16.27023\INCLUDE\XATOMIC0.H
E:\PROGRAMMING\VISUAL STUDIO COMMUNITY\VC\TOOLS\MSVC\14.16.27023\INCLUDE\INTRIN0.H
E:\PROGRAMMING\VISUAL STUDIO COMMUNITY\VC\TOOLS\MSVC\14.16.27023\INCLUDE\TYPEINFO
E:\PROGRAMMING\VISUAL STUDIO COMMUNITY\VC\TOOLS\MSVC\14.16.27023\INCLUDE\VCRUNTIME_TYPEINFO.H
E:\PROGRAMMING\VISUAL STUDIO COMMUNITY\VC\TOOLS\MSVC\14.16.27023\INCLUDE\XLOCINFO
E:\PROGRAMMING\VISUAL STUDIO COMMUNITY\VC\TOOLS\MSVC\14.16.27023\INCLUDE\XLOCINFO.H
C:\PROGRAM FILES (X86)\WINDOWS KITS\10\INCLUDE\10.0.17763.0\UCRT\CTYPE.H
C:\PROGRAM FILES (X86)\WINDOWS KITS\10\INCLUDE\10.0.17763.0\UCRT\LOCALE.H
E:\PROGRAMMING\VISUAL STUDIO COMMUNITY\VC\TOOLS\MSVC\14.16.27023\INCLUDE\MEMORY
E:\PROGRAMMING\VISUAL STUDIO COMMUNITY\VC\TOOLS\MSVC\14.16.27023\INCLUDE\XMEMORY
E:\PROGRAMMING\VISUAL STUDIO COMMUNITY\VC\TOOLS\MSVC\14.16.27023\INCLUDE\XFACET
E:\PROGRAMMING\VISUAL STUDIO COMMUNITY\VC\TOOLS\MSVC\14.16.27023\INCLUDE\SYSTEM_ERROR
E:\PROGRAMMING\VISUAL STUDIO COMMUNITY\VC\TOOLS\MSVC\14.16.27023\INCLUDE\CERRNO
E:\PROGRAMMING\VISUAL STUDIO COMMUNITY\VC\TOOLS\MSVC\14.16.27023\INCLUDE\XCALL_ONCE.H
E:\PROGRAMMING\VISUAL STUDIO COMMUNITY\VC\TOOLS\MSVC\14.16.27023\INCLUDE\XERRC.H
C:\PROGRAM FILES (X86)\WINDOWS KITS\10\INCLUDE\10.0.17763.0\UCRT\SHARE.H
E:\PROGRAMMING\VISUAL STUDIO COMMUNITY\VC\TOOLS\MSVC\14.16.27023\INCLUDE\VECTOR
E:\PROGRAMMING\PROJECTS\C++\MATRIXMULTIPLICATION\PACKAGES\MICROSOFT.GOOGLETEST.V140.WINDESKTOP.MSVCSTL.STATIC.RT-DYN.1.8.0\BUILD\NATIVE\INCLUDE\GTEST\INTERNAL\GTEST-INTERNAL.H
E:\PROGRAMMING\PROJECTS\C++\MATRIXMULTIPLICATION\PACKAGES\MICROSOFT.GOOGLETEST.V140.WINDESKTOP.MSVCSTL.STATIC.RT-DYN.1.8.0\BUILD\NATIVE\INCLUDE\GTEST\INTERNAL\GTEST-PORT.H
E:\PROGRAMMING\VISUAL STUDIO COMMUNITY\VC\TOOLS\MSVC\14.16.27023\INCLUDE\ALGORITHM
E:\PROGRAMMING\VISUAL STUDIO COMMUNITY\VC\TOOLS\MSVC\14.16.27023\INCLUDE\IOSTREAM
E:\PROGRAMMING\VISUAL STUDIO COMMUNITY\VC\TOOLS\MSVC\14.16.27023\INCLUDE\ISTREAM
E:\PROGRAMMING\VISUAL STUDIO COMMUNITY\VC\TOOLS\MSVC\14.16.27023\INCLUDE\SSTREAM
E:\PROGRAMMING\VISUAL STUDIO COMMUNITY\VC\TOOLS\MSVC\14.16.27023\INCLUDE\STRING
E:\PROGRAMMING\VISUAL STUDIO COMMUNITY\VC\TOOLS\MSVC\14.16.27023\INCLUDE\XSTRING_INSERT.H
E:\PROGRAMMING\PROJECTS\C++\MATRIXMULTIPLICATION\PACKAGES\MICROSOFT.GOOGLETEST.V140.WINDESKTOP.MSVCSTL.STATIC.RT-DYN.1.8.0\BUILD\NATIVE\INCLUDE\GTEST\INTERNAL\GTEST-PORT-ARCH.H
E:\PROGRAMMING\PROJECTS\C++\MATRIXMULTIPLICATION\PACKAGES\MICROSOFT.GOOGLETEST.V140.WINDESKTOP.MSVCSTL.STATIC.RT-DYN.1.8.0\BUILD\NATIVE\INCLUDE\GTEST\INTERNAL\CUSTOM\GTEST-PORT.H
C:\PROGRAM FILES (X86)\WINDOWS KITS\10\INCLUDE\10.0.17763.0\UCRT\DIRECT.H
C:\PROGRAM FILES (X86)\WINDOWS KITS\10\INCLUDE\10.0.17763.0\UCRT\IO.H
C:\PROGRAM FILES (X86)\WINDOWS KITS\10\INCLUDE\10.0.17763.0\UCRT\CORECRT_IO.H
E:\PROGRAMMING\VISUAL STUDIO COMMUNITY\VC\TOOLS\MSVC\14.16.27023\INCLUDE\TUPLE
E:\PROGRAMMING\VISUAL STUDIO COMMUNITY\VC\TOOLS\MSVC\14.16.27023\INCLUDE\IOMANIP
E:\PROGRAMMING\VISUAL STUDIO COMMUNITY\VC\TOOLS\MSVC\14.16.27023\INCLUDE\XLOCMON
E:\PROGRAMMING\VISUAL STUDIO COMMUNITY\VC\TOOLS\MSVC\14.16.27023\INCLUDE\XLOCTIME
E:\PROGRAMMING\VISUAL STUDIO COMMUNITY\VC\TOOLS\MSVC\14.16.27023\INCLUDE\CTIME
C:\PROGRAM FILES (X86)\WINDOWS KITS\10\INCLUDE\10.0.17763.0\UCRT\TIME.H
E:\PROGRAMMING\VISUAL STUDIO COMMUNITY\VC\TOOLS\MSVC\14.16.27023\INCLUDE\MAP
E:\PROGRAMMING\VISUAL STUDIO COMMUNITY\VC\TOOLS\MSVC\14.16.27023\INCLUDE\XTREE
E:\PROGRAMMING\VISUAL STUDIO COMMUNITY\VC\TOOLS\MSVC\14.16.27023\INCLUDE\SET
E:\PROGRAMMING\PROJECTS\C++\MATRIXMULTIPLICATION\PACKAGES\MICROSOFT.GOOGLETEST.V140.WINDESKTOP.MSVCSTL.STATIC.RT-DYN.1.8.0\BUILD\NATIVE\INCLUDE\GTEST\GTEST-MESSAGE.H
E:\PROGRAMMING\PROJECTS\C++\MATRIXMULTIPLICATION\PACKAGES\MICROSOFT.GOOGLETEST.V140.WINDESKTOP.MSVCSTL.STATIC.RT-DYN.1.8.0\BUILD\NATIVE\INCLUDE\GTEST\INTERNAL\GTEST-STRING.H
E:\PROGRAMMING\PROJECTS\C++\MATRIXMULTIPLICATION\PACKAGES\MICROSOFT.GOOGLETEST.V140.WINDESKTOP.MSVCSTL.STATIC.RT-DYN.1.8.0\BUILD\NATIVE\INCLUDE\GTEST\INTERNAL\GTEST-FILEPATH.H
E:\PROGRAMMING\PROJECTS\C++\MATRIXMULTIPLICATION\PACKAGES\MICROSOFT.GOOGLETEST.V140.WINDESKTOP.MSVCSTL.STATIC.RT-DYN.1.8.0\BUILD\NATIVE\INCLUDE\GTEST\INTERNAL\GTEST-TYPE-UTIL.H
E:\PROGRAMMING\PROJECTS\C++\MATRIXMULTIPLICATION\PACKAGES\MICROSOFT.GOOGLETEST.V140.WINDESKTOP.MSVCSTL.STATIC.RT-DYN.1.8.0\BUILD\NATIVE\INCLUDE\GTEST\GTEST-DEATH-TEST.H
E:\PROGRAMMING\PROJECTS\C++\MATRIXMULTIPLICATION\PACKAGES\MICROSOFT.GOOGLETEST.V140.WINDESKTOP.MSVCSTL.STATIC.RT-DYN.1.8.0\BUILD\NATIVE\INCLUDE\GTEST\INTERNAL\GTEST-DEATH-TEST-INTERNAL.H
E:\PROGRAMMING\PROJECTS\C++\MATRIXMULTIPLICATION\PACKAGES\MICROSOFT.GOOGLETEST.V140.WINDESKTOP.MSVCSTL.STATIC.RT-DYN.1.8.0\BUILD\NATIVE\INCLUDE\GTEST\GTEST-PARAM-TEST.H
E:\PROGRAMMING\PROJECTS\C++\MATRIXMULTIPLICATION\PACKAGES\MICROSOFT.GOOGLETEST.V140.WINDESKTOP.MSVCSTL.STATIC.RT-DYN.1.8.0\BUILD\NATIVE\INCLUDE\GTEST\INTERNAL\GTEST-PARAM-UTIL.H
E:\PROGRAMMING\VISUAL STUDIO COMMUNITY\VC\TOOLS\MSVC\14.16.27023\INCLUDE\ITERATOR
E:\PROGRAMMING\PROJECTS\C++\MATRIXMULTIPLICATION\PACKAGES\MICROSOFT.GOOGLETEST.V140.WINDESKTOP.MSVCSTL.STATIC.RT-DYN.1.8.0\BUILD\NATIVE\INCLUDE\GTEST\INTERNAL\GTEST-LINKED_PTR.H
C:\PROGRAM FILES (X86)\WINDOWS KITS\10\INCLUDE\10.0.17763.0\UCRT\ASSERT.H
E:\PROGRAMMING\PROJECTS\C++\MATRIXMULTIPLICATION\PACKAGES\MICROSOFT.GOOGLETEST.V140.WINDESKTOP.MSVCSTL.STATIC.RT-DYN.1.8.0\BUILD\NATIVE\INCLUDE\GTEST\GTEST-PRINTERS.H
E:\PROGRAMMING\PROJECTS\C++\MATRIXMULTIPLICATION\PACKAGES\MICROSOFT.GOOGLETEST.V140.WINDESKTOP.MSVCSTL.STATIC.RT-DYN.1.8.0\BUILD\NATIVE\INCLUDE\GTEST\INTERNAL\CUSTOM\GTEST-PRINTERS.H
E:\PROGRAMMING\PROJECTS\C++\MATRIXMULTIPLICATION\PACKAGES\MICROSOFT.GOOGLETEST.V140.WINDESKTOP.MSVCSTL.STATIC.RT-DYN.1.8.0\BUILD\NATIVE\INCLUDE\GTEST\INTERNAL\GTEST-PARAM-UTIL-GENERATED.H
E:\PROGRAMMING\PROJECTS\C++\MATRIXMULTIPLICATION\PACKAGES\MICROSOFT.GOOGLETEST.V140.WINDESKTOP.MSVCSTL.STATIC.RT-DYN.1.8.0\BUILD\NATIVE\INCLUDE\GTEST\GTEST_PROD.H
E:\PROGRAMMING\PROJECTS\C++\MATRIXMULTIPLICATION\PACKAGES\MICROSOFT.GOOGLETEST.V140.WINDESKTOP.MSVCSTL.STATIC.RT-DYN.1.8.0\BUILD\NATIVE\INCLUDE\GTEST\GTEST-TEST-PART.H
E:\PROGRAMMING\PROJECTS\C++\MATRIXMULTIPLICATION\PACKAGES\MICROSOFT.GOOGLETEST.V140.WINDESKTOP.MSVCSTL.STATIC.RT-DYN.1.8.0\BUILD\NATIVE\INCLUDE\GTEST\GTEST-TYPED-TEST.H
E:\PROGRAMMING\PROJECTS\C++\MATRIXMULTIPLICATION\PACKAGES\MICROSOFT.GOOGLETEST.V140.WINDESKTOP.MSVCSTL.STATIC.RT-DYN.1.8.0\BUILD\NATIVE\INCLUDE\GTEST\GTEST_PRED_IMPL.H
^E:\PROGRAMMING\PROJECTS\C++\MATRIXMULTIPLICATION\TESTMATRIXMULTIPLICATION\TEST.CPP
E:\PROGRAMMING\VISUAL STUDIO COMMUNITY\VC\TOOLS\MSVC\14.16.27023\BIN\HOSTX86\X86\1033\CLUI.DLL
C:\WINDOWS\GLOBALIZATION\SORTING\SORTDEFAULT.NLS
C:\WINDOWS\SYSTEM32\TZRES.DLL
E:\PROGRAMMING\PROJECTS\C++\MATRIXMULTIPLICATION\TESTMATRIXMULTIPLICATION\PCH.H
E:\PROGRAMMING\PROJECTS\C++\MATRIXMULTIPLICATION\PACKAGES\MICROSOFT.GOOGLETEST.V140.WINDESKTOP.MSVCSTL.STATIC.RT-DYN.1.8.0\BUILD\NATIVE\INCLUDE\GTEST\GTEST.H
E:\PROGRAMMING\VISUAL STUDIO COMMUNITY\VC\TOOLS\MSVC\14.16.27023\INCLUDE\LIMITS
E:\PROGRAMMING\VISUAL STUDIO COMMUNITY\VC\TOOLS\MSVC\14.16.27023\INCLUDE\YMATH.H
E:\PROGRAMMING\VISUAL STUDIO COMMUNITY\VC\TOOLS\MSVC\14.16.27023\INCLUDE\YVALS.H
E:\PROGRAMMING\VISUAL STUDIO COMMUNITY\VC\TOOLS\MSVC\14.16.27023\INCLUDE\YVALS_CORE.H
E:\PROGRAMMING\VISUAL STUDIO COMMUNITY\VC\TOOLS\MSVC\14.16.27023\INCLUDE\XKEYCHECK.H
E:\PROGRAMMING\VISUAL STUDIO COMMUNITY\VC\TOOLS\MSVC\14.16.27023\INCLUDE\CRTDEFS.H
E:\PROGRAMMING\VISUAL STUDIO COMMUNITY\VC\TOOLS\MSVC\14.16.27023\INCLUDE\VCRUNTIME.H
E:\PROGRAMMING\VISUAL STUDIO COMMUNITY\VC\TOOLS\MSVC\14.16.27023\INCLUDE\SAL.H
E:\PROGRAMMING\VISUAL STUDIO COMMUNITY\VC\TOOLS\MSVC\14.16.27023\INCLUDE\CONCURRENCYSAL.H
E:\PROGRAMMING\VISUAL STUDIO COMMUNITY\VC\TOOLS\MSVC\14.16.27023\INCLUDE\VADEFS.H
C:\PROGRAM FILES (X86)\WINDOWS KITS\10\INCLUDE\10.0.17763.0\UCRT\CORECRT.H
C:\PROGRAM FILES (X86)\WINDOWS KITS\10\INCLUDE\10.0.17763.0\UCRT\CRTDBG.H
E:\PROGRAMMING\VISUAL STUDIO COMMUNITY\VC\TOOLS\MSVC\14.16.27023\INCLUDE\VCRUNTIME_NEW_DEBUG.H
E:\PROGRAMMING\VISUAL STUDIO COMMUNITY\VC\TOOLS\MSVC\14.16.27023\INCLUDE\VCRUNTIME_NEW.H
E:\PROGRAMMING\VISUAL STUDIO COMMUNITY\VC\TOOLS\MSVC\14.16.27023\INCLUDE\USE_ANSI.H
E:\PROGRAMMING\VISUAL STUDIO COMMUNITY\VC\TOOLS\MSVC\14.16.27023\INCLUDE\CFLOAT
C:\PROGRAM FILES (X86)\WINDOWS KITS\10\INCLUDE\10.0.17763.0\UCRT\FLOAT.H
E:\PROGRAMMING\VISUAL STUDIO COMMUNITY\VC\TOOLS\MSVC\14.16.27023\INCLUDE\CLIMITS
E:\PROGRAMMING\VISUAL STUDIO COMMUNITY\VC\TOOLS\MSVC\14.16.27023\INCLUDE\LIMITS.H
E:\PROGRAMMING\VISUAL STUDIO COMMUNITY\VC\TOOLS\MSVC\14.16.27023\INCLUDE\CMATH
E:\PROGRAMMING\VISUAL STUDIO COMMUNITY\VC\TOOLS\MSVC\14.16.27023\INCLUDE\CSTDLIB
C:\PROGRAM FILES (X86)\WINDOWS KITS\10\INCLUDE\10.0.17763.0\UCRT\STDLIB.H
C:\PROGRAM FILES (X86)\WINDOWS KITS\10\INCLUDE\10.0.17763.0\UCRT\CORECRT_MALLOC.H
C:\PROGRAM FILES (X86)\WINDOWS KITS\10\INCLUDE\10.0.17763.0\UCRT\CORECRT_SEARCH.H
C:\PROGRAM FILES (X86)\WINDOWS KITS\10\INCLUDE\10.0.17763.0\UCRT\STDDEF.H
C:\PROGRAM FILES (X86)\WINDOWS KITS\10\INCLUDE\10.0.17763.0\UCRT\CORECRT_WSTDLIB.H
C:\PROGRAM FILES (X86)\WINDOWS KITS\10\INCLUDE\10.0.17763.0\UCRT\MATH.H
C:\PROGRAM FILES (X86)\WINDOWS KITS\10\INCLUDE\10.0.17763.0\UCRT\CORECRT_MATH.H
E:\PROGRAMMING\VISUAL STUDIO COMMUNITY\VC\TOOLS\MSVC\14.16.27023\INCLUDE\XTGMATH.H
E:\PROGRAMMING\VISUAL STUDIO COMMUNITY\VC\TOOLS\MSVC\14.16.27023\INCLUDE\XTR1COMMON
E:\PROGRAMMING\VISUAL STUDIO COMMUNITY\VC\TOOLS\MSVC\14.16.27023\INCLUDE\CWCHAR
C:\PROGRAM FILES (X86)\WINDOWS KITS\10\INCLUDE\10.0.17763.0\UCRT\WCHAR.H
C:\PROGRAM FILES (X86)\WINDOWS KITS\10\INCLUDE\10.0.17763.0\UCRT\CORECRT_MEMCPY_S.H
C:\PROGRAM FILES (X86)\WINDOWS KITS\10\INCLUDE\10.0.17763.0\UCRT\ERRNO.H
E:\PROGRAMMING\VISUAL STUDIO COMMUNITY\VC\TOOLS\MSVC\14.16.27023\INCLUDE\VCRUNTIME_STRING.H
C:\PROGRAM FILES (X86)\WINDOWS KITS\10\INCLUDE\10.0.17763.0\UCRT\CORECRT_WCONIO.H
C:\PROGRAM FILES (X86)\WINDOWS KITS\10\INCLUDE\10.0.17763.0\UCRT\CORECRT_STDIO_CONFIG.H
C:\PROGRAM FILES (X86)\WINDOWS KITS\10\INCLUDE\10.0.17763.0\UCRT\CORECRT_WCTYPE.H
C:\PROGRAM FILES (X86)\WINDOWS KITS\10\INCLUDE\10.0.17763.0\UCRT\CORECRT_WDIRECT.H
C:\PROGRAM FILES (X86)\WINDOWS KITS\10\INCLUDE\10.0.17763.0\UCRT\CORECRT_WIO.H
C:\PROGRAM FILES (X86)\WINDOWS KITS\10\INCLUDE\10.0.17763.0\UCRT\CORECRT_SHARE.H
C:\PROGRAM FILES (X86)\WINDOWS KITS\10\INCLUDE\10.0.17763.0\UCRT\CORECRT_WPROCESS.H
C:\PROGRAM FILES (X86)\WINDOWS KITS\10\INCLUDE\10.0.17763.0\UCRT\CORECRT_WSTDIO.H
C:\PROGRAM FILES (X86)\WINDOWS KITS\10\INCLUDE\10.0.17763.0\UCRT\CORECRT_WSTRING.H
C:\PROGRAM FILES (X86)\WINDOWS KITS\10\INCLUDE\10.0.17763.0\UCRT\CORECRT_WTIME.H
C:\PROGRAM FILES (X86)\WINDOWS KITS\10\INCLUDE\10.0.17763.0\UCRT\SYS\STAT.H
C:\PROGRAM FILES (X86)\WINDOWS KITS\10\INCLUDE\10.0.17763.0\UCRT\SYS\TYPES.H
E:\PROGRAMMING\VISUAL STUDIO COMMUNITY\VC\TOOLS\MSVC\14.16.27023\INCLUDE\XSTDDEF
E:\PROGRAMMING\VISUAL STUDIO COMMUNITY\VC\TOOLS\MSVC\14.16.27023\INCLUDE\CSTDDEF
E:\PROGRAMMING\VISUAL STUDIO COMMUNITY\VC\TOOLS\MSVC\14.16.27023\INCLUDE\INITIALIZER_LIST
E:\PROGRAMMING\VISUAL STUDIO COMMUNITY\VC\TOOLS\MSVC\14.16.27023\INCLUDE\OSTREAM
E:\PROGRAMMING\VISUAL STUDIO COMMUNITY\VC\TOOLS\MSVC\14.16.27023\INCLUDE\IOS
E:\PROGRAMMING\VISUAL STUDIO COMMUNITY\VC\TOOLS\MSVC\14.16.27023\INCLUDE\XLOCNUM
E:\PROGRAMMING\VISUAL STUDIO COMMUNITY\VC\TOOLS\MSVC\14.16.27023\INCLUDE\CSTDIO
C:\PROGRAM FILES (X86)\WINDOWS KITS\10\INCLUDE\10.0.17763.0\UCRT\STDIO.H
E:\PROGRAMMING\VISUAL STUDIO COMMUNITY\VC\TOOLS\MSVC\14.16.27023\INCLUDE\STREAMBUF
E:\PROGRAMMING\VISUAL STUDIO COMMUNITY\VC\TOOLS\MSVC\14.16.27023\INCLUDE\XIOSBASE
E:\PROGRAMMING\VISUAL STUDIO COMMUNITY\VC\TOOLS\MSVC\14.16.27023\INCLUDE\XLOCALE
E:\PROGRAMMING\VISUAL STUDIO COMMUNITY\VC\TOOLS\MSVC\14.16.27023\INCLUDE\CSTRING
C:\PROGRAM FILES (X86)\WINDOWS KITS\10\INCLUDE\10.0.17763.0\UCRT\STRING.H
C:\PROGRAM FILES (X86)\WINDOWS KITS\10\INCLUDE\10.0.17763.0\UCRT\CORECRT_MEMORY.H
E:\PROGRAMMING\VISUAL STUDIO COMMUNITY\VC\TOOLS\MSVC\14.16.27023\INCLUDE\STDEXCEPT
E:\PROGRAMMING\VISUAL STUDIO COMMUNITY\VC\TOOLS\MSVC\14.16.27023\INCLUDE\EXCEPTION
E:\PROGRAMMING\VISUAL STUDIO COMMUNITY\VC\TOOLS\MSVC\14.16.27023\INCLUDE\TYPE_TRAITS
C:\PROGRAM FILES (X86)\WINDOWS KITS\10\INCLUDE\10.0.17763.0\UCRT\MALLOC.H
E:\PROGRAMMING\VISUAL STUDIO COMMUNITY\VC\TOOLS\MSVC\14.16.27023\INCLUDE\VCRUNTIME_EXCEPTION.H
E:\PROGRAMMING\VISUAL STUDIO COMMUNITY\VC\TOOLS\MSVC\14.16.27023\INCLUDE\EH.H
C:\PROGRAM FILES (X86)\WINDOWS KITS\10\INCLUDE\10.0.17763.0\UCRT\CORECRT_TERMINATE.H
E:\PROGRAMMING\VISUAL STUDIO COMMUNITY\VC\TOOLS\MSVC\14.16.27023\INCLUDE\XSTRING
E:\PROGRAMMING\VISUAL STUDIO COMMUNITY\VC\TOOLS\MSVC\14.16.27023\INCLUDE\XMEMORY0
E:\PROGRAMMING\VISUAL STUDIO COMMUNITY\VC\TOOLS\MSVC\14.16.27023\INCLUDE\CSTDINT
E:\PROGRAMMING\VISUAL STUDIO COMMUNITY\VC\TOOLS\MSVC\14.16.27023\INCLUDE\STDINT.H
E:\PROGRAMMING\VISUAL STUDIO COMMUNITY\VC\TOOLS\MSVC\14.16.27023\INCLUDE\NEW
E:\PROGRAMMING\VISUAL STUDIO COMMUNITY\VC\TOOLS\MSVC\14.16.27023\INCLUDE\XUTILITY
E:\PROGRAMMING\VISUAL STUDIO COMMUNITY\VC\TOOLS\MSVC\14.16.27023\INCLUDE\UTILITY
E:\PROGRAMMING\VISUAL STUDIO COMMUNITY\VC\TOOLS\MSVC\14.16.27023\INCLUDE\IOSFWD
E:\PROGRAMMING\VISUAL STUDIO COMMUNITY\VC\TOOLS\MSVC\14.16.27023\INCLUDE\XATOMIC0.H
E:\PROGRAMMING\VISUAL STUDIO COMMUNITY\VC\TOOLS\MSVC\14.16.27023\INCLUDE\INTRIN0.H
E:\PROGRAMMING\VISUAL STUDIO COMMUNITY\VC\TOOLS\MSVC\14.16.27023\INCLUDE\TYPEINFO
E:\PROGRAMMING\VISUAL STUDIO COMMUNITY\VC\TOOLS\MSVC\14.16.27023\INCLUDE\VCRUNTIME_TYPEINFO.H
E:\PROGRAMMING\VISUAL STUDIO COMMUNITY\VC\TOOLS\MSVC\14.16.27023\INCLUDE\XLOCINFO
E:\PROGRAMMING\VISUAL STUDIO COMMUNITY\VC\TOOLS\MSVC\14.16.27023\INCLUDE\XLOCINFO.H
C:\PROGRAM FILES (X86)\WINDOWS KITS\10\INCLUDE\10.0.17763.0\UCRT\CTYPE.H
C:\PROGRAM FILES (X86)\WINDOWS KITS\10\INCLUDE\10.0.17763.0\UCRT\LOCALE.H
E:\PROGRAMMING\VISUAL STUDIO COMMUNITY\VC\TOOLS\MSVC\14.16.27023\INCLUDE\MEMORY
E:\PROGRAMMING\VISUAL STUDIO COMMUNITY\VC\TOOLS\MSVC\14.16.27023\INCLUDE\XMEMORY
E:\PROGRAMMING\VISUAL STUDIO COMMUNITY\VC\TOOLS\MSVC\14.16.27023\INCLUDE\XFACET
E:\PROGRAMMING\VISUAL STUDIO COMMUNITY\VC\TOOLS\MSVC\14.16.27023\INCLUDE\SYSTEM_ERROR
E:\PROGRAMMING\VISUAL STUDIO COMMUNITY\VC\TOOLS\MSVC\14.16.27023\INCLUDE\CERRNO
E:\PROGRAMMING\VISUAL STUDIO COMMUNITY\VC\TOOLS\MSVC\14.16.27023\INCLUDE\XCALL_ONCE.H
E:\PROGRAMMING\VISUAL STUDIO COMMUNITY\VC\TOOLS\MSVC\14.16.27023\INCLUDE\XERRC.H
C:\PROGRAM FILES (X86)\WINDOWS KITS\10\INCLUDE\10.0.17763.0\UCRT\SHARE.H
E:\PROGRAMMING\VISUAL STUDIO COMMUNITY\VC\TOOLS\MSVC\14.16.27023\INCLUDE\VECTOR
E:\PROGRAMMING\PROJECTS\C++\MATRIXMULTIPLICATION\PACKAGES\MICROSOFT.GOOGLETEST.V140.WINDESKTOP.MSVCSTL.STATIC.RT-DYN.1.8.0\BUILD\NATIVE\INCLUDE\GTEST\INTERNAL\GTEST-INTERNAL.H
E:\PROGRAMMING\PROJECTS\C++\MATRIXMULTIPLICATION\PACKAGES\MICROSOFT.GOOGLETEST.V140.WINDESKTOP.MSVCSTL.STATIC.RT-DYN.1.8.0\BUILD\NATIVE\INCLUDE\GTEST\INTERNAL\GTEST-PORT.H
E:\PROGRAMMING\VISUAL STUDIO COMMUNITY\VC\TOOLS\MSVC\14.16.27023\INCLUDE\ALGORITHM
E:\PROGRAMMING\VISUAL STUDIO COMMUNITY\VC\TOOLS\MSVC\14.16.27023\INCLUDE\IOSTREAM
E:\PROGRAMMING\VISUAL STUDIO COMMUNITY\VC\TOOLS\MSVC\14.16.27023\INCLUDE\ISTREAM
E:\PROGRAMMING\VISUAL STUDIO COMMUNITY\VC\TOOLS\MSVC\14.16.27023\INCLUDE\SSTREAM
E:\PROGRAMMING\VISUAL STUDIO COMMUNITY\VC\TOOLS\MSVC\14.16.27023\INCLUDE\STRING
E:\PROGRAMMING\VISUAL STUDIO COMMUNITY\VC\TOOLS\MSVC\14.16.27023\INCLUDE\XSTRING_INSERT.H
E:\PROGRAMMING\PROJECTS\C++\MATRIXMULTIPLICATION\PACKAGES\MICROSOFT.GOOGLETEST.V140.WINDESKTOP.MSVCSTL.STATIC.RT-DYN.1.8.0\BUILD\NATIVE\INCLUDE\GTEST\INTERNAL\GTEST-PORT-ARCH.H
E:\PROGRAMMING\PROJECTS\C++\MATRIXMULTIPLICATION\PACKAGES\MICROSOFT.GOOGLETEST.V140.WINDESKTOP.MSVCSTL.STATIC.RT-DYN.1.8.0\BUILD\NATIVE\INCLUDE\GTEST\INTERNAL\CUSTOM\GTEST-PORT.H
C:\PROGRAM FILES (X86)\WINDOWS KITS\10\INCLUDE\10.0.17763.0\UCRT\DIRECT.H
C:\PROGRAM FILES (X86)\WINDOWS KITS\10\INCLUDE\10.0.17763.0\UCRT\IO.H
C:\PROGRAM FILES (X86)\WINDOWS KITS\10\INCLUDE\10.0.17763.0\UCRT\CORECRT_IO.H
E:\PROGRAMMING\VISUAL STUDIO COMMUNITY\VC\TOOLS\MSVC\14.16.27023\INCLUDE\TUPLE
E:\PROGRAMMING\VISUAL STUDIO COMMUNITY\VC\TOOLS\MSVC\14.16.27023\INCLUDE\IOMANIP
E:\PROGRAMMING\VISUAL STUDIO COMMUNITY\VC\TOOLS\MSVC\14.16.27023\INCLUDE\XLOCMON
E:\PROGRAMMING\VISUAL STUDIO COMMUNITY\VC\TOOLS\MSVC\14.16.27023\INCLUDE\XLOCTIME
E:\PROGRAMMING\VISUAL STUDIO COMMUNITY\VC\TOOLS\MSVC\14.16.27023\INCLUDE\CTIME
C:\PROGRAM FILES (X86)\WINDOWS KITS\10\INCLUDE\10.0.17763.0\UCRT\TIME.H
E:\PROGRAMMING\VISUAL STUDIO COMMUNITY\VC\TOOLS\MSVC\14.16.27023\INCLUDE\MAP
E:\PROGRAMMING\VISUAL STUDIO COMMUNITY\VC\TOOLS\MSVC\14.16.27023\INCLUDE\XTREE
E:\PROGRAMMING\VISUAL STUDIO COMMUNITY\VC\TOOLS\MSVC\14.16.27023\INCLUDE\SET
E:\PROGRAMMING\PROJECTS\C++\MATRIXMULTIPLICATION\PACKAGES\MICROSOFT.GOOGLETEST.V140.WINDESKTOP.MSVCSTL.STATIC.RT-DYN.1.8.0\BUILD\NATIVE\INCLUDE\GTEST\GTEST-MESSAGE.H
E:\PROGRAMMING\PROJECTS\C++\MATRIXMULTIPLICATION\PACKAGES\MICROSOFT.GOOGLETEST.V140.WINDESKTOP.MSVCSTL.STATIC.RT-DYN.1.8.0\BUILD\NATIVE\INCLUDE\GTEST\INTERNAL\GTEST-STRING.H
E:\PROGRAMMING\PROJECTS\C++\MATRIXMULTIPLICATION\PACKAGES\MICROSOFT.GOOGLETEST.V140.WINDESKTOP.MSVCSTL.STATIC.RT-DYN.1.8.0\BUILD\NATIVE\INCLUDE\GTEST\INTERNAL\GTEST-FILEPATH.H
E:\PROGRAMMING\PROJECTS\C++\MATRIXMULTIPLICATION\PACKAGES\MICROSOFT.GOOGLETEST.V140.WINDESKTOP.MSVCSTL.STATIC.RT-DYN.1.8.0\BUILD\NATIVE\INCLUDE\GTEST\INTERNAL\GTEST-TYPE-UTIL.H
E:\PROGRAMMING\PROJECTS\C++\MATRIXMULTIPLICATION\PACKAGES\MICROSOFT.GOOGLETEST.V140.WINDESKTOP.MSVCSTL.STATIC.RT-DYN.1.8.0\BUILD\NATIVE\INCLUDE\GTEST\GTEST-DEATH-TEST.H
E:\PROGRAMMING\PROJECTS\C++\MATRIXMULTIPLICATION\PACKAGES\MICROSOFT.GOOGLETEST.V140.WINDESKTOP.MSVCSTL.STATIC.RT-DYN.1.8.0\BUILD\NATIVE\INCLUDE\GTEST\INTERNAL\GTEST-DEATH-TEST-INTERNAL.H
E:\PROGRAMMING\PROJECTS\C++\MATRIXMULTIPLICATION\PACKAGES\MICROSOFT.GOOGLETEST.V140.WINDESKTOP.MSVCSTL.STATIC.RT-DYN.1.8.0\BUILD\NATIVE\INCLUDE\GTEST\GTEST-PARAM-TEST.H
E:\PROGRAMMING\PROJECTS\C++\MATRIXMULTIPLICATION\PACKAGES\MICROSOFT.GOOGLETEST.V140.WINDESKTOP.MSVCSTL.STATIC.RT-DYN.1.8.0\BUILD\NATIVE\INCLUDE\GTEST\INTERNAL\GTEST-PARAM-UTIL.H
E:\PROGRAMMING\VISUAL STUDIO COMMUNITY\VC\TOOLS\MSVC\14.16.27023\INCLUDE\ITERATOR
E:\PROGRAMMING\PROJECTS\C++\MATRIXMULTIPLICATION\PACKAGES\MICROSOFT.GOOGLETEST.V140.WINDESKTOP.MSVCSTL.STATIC.RT-DYN.1.8.0\BUILD\NATIVE\INCLUDE\GTEST\INTERNAL\GTEST-LINKED_PTR.H
C:\PROGRAM FILES (X86)\WINDOWS KITS\10\INCLUDE\10.0.17763.0\UCRT\ASSERT.H
E:\PROGRAMMING\PROJECTS\C++\MATRIXMULTIPLICATION\PACKAGES\MICROSOFT.GOOGLETEST.V140.WINDESKTOP.MSVCSTL.STATIC.RT-DYN.1.8.0\BUILD\NATIVE\INCLUDE\GTEST\GTEST-PRINTERS.H
E:\PROGRAMMING\PROJECTS\C++\MATRIXMULTIPLICATION\PACKAGES\MICROSOFT.GOOGLETEST.V140.WINDESKTOP.MSVCSTL.STATIC.RT-DYN.1.8.0\BUILD\NATIVE\INCLUDE\GTEST\INTERNAL\CUSTOM\GTEST-PRINTERS.H
E:\PROGRAMMING\PROJECTS\C++\MATRIXMULTIPLICATION\PACKAGES\MICROSOFT.GOOGLETEST.V140.WINDESKTOP.MSVCSTL.STATIC.RT-DYN.1.8.0\BUILD\NATIVE\INCLUDE\GTEST\INTERNAL\GTEST-PARAM-UTIL-GENERATED.H
E:\PROGRAMMING\PROJECTS\C++\MATRIXMULTIPLICATION\PACKAGES\MICROSOFT.GOOGLETEST.V140.WINDESKTOP.MSVCSTL.STATIC.RT-DYN.1.8.0\BUILD\NATIVE\INCLUDE\GTEST\GTEST_PROD.H
E:\PROGRAMMING\PROJECTS\C++\MATRIXMULTIPLICATION\PACKAGES\MICROSOFT.GOOGLETEST.V140.WINDESKTOP.MSVCSTL.STATIC.RT-DYN.1.8.0\BUILD\NATIVE\INCLUDE\GTEST\GTEST-TEST-PART.H
E:\PROGRAMMING\PROJECTS\C++\MATRIXMULTIPLICATION\PACKAGES\MICROSOFT.GOOGLETEST.V140.WINDESKTOP.MSVCSTL.STATIC.RT-DYN.1.8.0\BUILD\NATIVE\INCLUDE\GTEST\GTEST-TYPED-TEST.H
E:\PROGRAMMING\PROJECTS\C++\MATRIXMULTIPLICATION\PACKAGES\MICROSOFT.GOOGLETEST.V140.WINDESKTOP.MSVCSTL.STATIC.RT-DYN.1.8.0\BUILD\NATIVE\INCLUDE\GTEST\GTEST_PRED_IMPL.H
E:\PROGRAMMING\PROJECTS\C++\MATRIXMULTIPLICATION\MATRIXMULTIPLICATION\PCH.H
E:\PROGRAMMING\PROJECTS\C++\MATRIXMULTIPLICATION\MATRIXMULTIPLICATION\MATRIXMULTIPLICATION.CPP
