^E:\PROGRAMMING\PROJECTS\C++\MATRIXMULTIPLICATION\TESTMATRIXMULTIPLICATION\DEBUG\PCH.OBJ|E:\PROGRAMMING\PROJECTS\C++\MATRIXMULTIPLICATION\TESTMATRIXMULTIPLICATION\DEBUG\TEST.OBJ
E:\PROGRAMMING\PROJECTS\C++\MATRIXMULTIPLICATION\PACKAGES\MICROSOFT.GOOGLETEST.V140.WINDESKTOP.MSVCSTL.STATIC.RT-DYN.1.8.0\LIB\NATIVE\V140\WINDESKTOP\MSVCSTL\STATIC\RT-DYN\X86\DEBUG\GTEST_MAIN.LIB
E:\PROGRAMMING\PROJECTS\C++\MATRIXMULTIPLICATION\PACKAGES\MICROSOFT.GOOGLETEST.V140.WINDESKTOP.MSVCSTL.STATIC.RT-DYN.1.8.0\LIB\NATIVE\V140\WINDESKTOP\MSVCSTL\STATIC\RT-DYN\X86\DEBUG\GTEST.LIB
C:\PROGRAM FILES (X86)\WINDOWS KITS\10\LIB\10.0.17763.0\UM\X86\KERNEL32.LIB
C:\PROGRAM FILES (X86)\WINDOWS KITS\10\LIB\10.0.17763.0\UM\X86\USER32.LIB
C:\PROGRAM FILES (X86)\WINDOWS KITS\10\LIB\10.0.17763.0\UM\X86\GDI32.LIB
C:\PROGRAM FILES (X86)\WINDOWS KITS\10\LIB\10.0.17763.0\UM\X86\WINSPOOL.LIB
C:\PROGRAM FILES (X86)\WINDOWS KITS\10\LIB\10.0.17763.0\UM\X86\COMDLG32.LIB
C:\PROGRAM FILES (X86)\WINDOWS KITS\10\LIB\10.0.17763.0\UM\X86\ADVAPI32.LIB
C:\PROGRAM FILES (X86)\WINDOWS KITS\10\LIB\10.0.17763.0\UM\X86\SHELL32.LIB
C:\PROGRAM FILES (X86)\WINDOWS KITS\10\LIB\10.0.17763.0\UM\X86\OLE32.LIB
C:\PROGRAM FILES (X86)\WINDOWS KITS\10\LIB\10.0.17763.0\UM\X86\OLEAUT32.LIB
C:\PROGRAM FILES (X86)\WINDOWS KITS\10\LIB\10.0.17763.0\UM\X86\UUID.LIB
C:\PROGRAM FILES (X86)\WINDOWS KITS\10\LIB\10.0.17763.0\UM\X86\ODBC32.LIB
C:\PROGRAM FILES (X86)\WINDOWS KITS\10\LIB\10.0.17763.0\UM\X86\ODBCCP32.LIB
E:\PROGRAMMING\PROJECTS\C++\MATRIXMULTIPLICATION\TESTMATRIXMULTIPLICATION\DEBUG\TEST.OBJ
E:\PROGRAMMING\PROJECTS\C++\MATRIXMULTIPLICATION\TESTMATRIXMULTIPLICATION\DEBUG\PCH.OBJ
C:\WINDOWS\SYSTEM32\TZRES.DLL
C:\WINDOWS\GLOBALIZATION\SORTING\SORTDEFAULT.NLS
E:\PROGRAMMING\VISUAL STUDIO COMMUNITY\VC\TOOLS\MSVC\14.16.27023\LIB\X86\MSVCPRTD.LIB
E:\PROGRAMMING\VISUAL STUDIO COMMUNITY\VC\TOOLS\MSVC\14.16.27023\LIB\X86\MSVCRTD.LIB
E:\PROGRAMMING\VISUAL STUDIO COMMUNITY\VC\TOOLS\MSVC\14.16.27023\LIB\X86\OLDNAMES.LIB
E:\PROGRAMMING\VISUAL STUDIO COMMUNITY\VC\TOOLS\MSVC\14.16.27023\LIB\X86\VCRUNTIMED.LIB
C:\PROGRAM FILES (X86)\WINDOWS KITS\10\LIB\10.0.17763.0\UCRT\X86\UCRTD.LIB
E:\PROGRAMMING\VISUAL STUDIO COMMUNITY\VC\TOOLS\MSVC\14.16.27023\BIN\HOSTX86\X86\LINK.EXE
C:\PROGRAM FILES (X86)\WINDOWS KITS\10\BIN\10.0.17763.0\X86\RC.EXE
E:\PROGRAMMING\VISUAL STUDIO COMMUNITY\VC\TOOLS\MSVC\14.16.27023\BIN\HOSTX86\X86\CVTRES.EXE
